%YAML 1.1
%TAG !u! tag:unity3d.com,2011:
--- !u!114 &11400000
MonoBehaviour:
  m_ObjectHideFlags: 0
  m_PrefabParentObject: {fileID: 0}
  m_PrefabInternal: {fileID: 0}
  m_GameObject: {fileID: 0}
  m_Enabled: 1
  m_EditorHideFlags: 0
  m_Script: {fileID: 11500000, guid: c4aeec67432262c41bf386aab7f755d9, type: 3}
  m_Name: EndNodeSteelBar
  m_EditorClassIdentifier: 
  _ConnectedNodes: []
  _BaseNode: {fileID: 11400000, guid: 7f4d2f34e57cb71489bbdf9e27b96b1d, type: 2}
  _SkillTree: {fileID: 11400000, guid: 2d432c40ea655ca4c83565e95e1f8817, type: 2}
  Skill_State: 0
  Icon: {fileID: 21300000, guid: 33c00a0a14facba4bae69e0e47df1be7, type: 3}
  SkillNodePref: {fileID: 1099208118174606, guid: d0b32c5e69989cf458145c30f43ba72c,
    type: 2}
  Unlocked: {fileID: 21300000, guid: ac6418ac1d0caf34f81f9a3a4c28bf83, type: 3}
  Locked: {fileID: 21300000, guid: 33c00a0a14facba4bae69e0e47df1be7, type: 3}
  SkillActive: {fileID: 21300000, guid: 5215cd9d2d8a079459a6f2fd34ac37e5, type: 3}
