%YAML 1.1
%TAG !u! tag:unity3d.com,2011:
--- !u!114 &11400000
MonoBehaviour:
  m_ObjectHideFlags: 0
  m_PrefabParentObject: {fileID: 0}
  m_PrefabInternal: {fileID: 0}
  m_GameObject: {fileID: 0}
  m_Enabled: 1
  m_EditorHideFlags: 0
  m_Script: {fileID: 11500000, guid: 4fbe51390e1a3614795d7b3924f1809a, type: 3}
  m_Name: Oil_Digging_Rig
  m_EditorClassIdentifier: 
  Building_Type: 0
  RequiredSkill: {fileID: 11400000, guid: e05a8c619e06dca43bf9fa83e19f2c19, type: 2}
  output: {fileID: 11400000, guid: 77d06fa94967f0941aa837decc8a08a7, type: 2}
  input: {fileID: 0}
